{
	"info": {
		"_postman_id": "527b6df1-e46c-4b93-91a2-b7d7a0d41205",
		"name": "product CRUD",
		"schema": "https://schema.getpostman.com/json/collection/v2.1.0/collection.json",
		"_exporter_id": "27117508",
		"_collection_link": "https://interstellar-shuttle-948332.postman.co/workspace/Team-Workspace~ddb4935e-f40d-4324-8539-32cff1480c3f/collection/27117508-527b6df1-e46c-4b93-91a2-b7d7a0d41205?action=share&creator=27117508&source=collection_link"
	},
	"item": [
		{
			"name": "Get Product By Id",
			"request": {
				"method": "GET",
				"header": [],
				"url": {
					"raw": "https://localhost:7101/api/products",
					"protocol": "https",
					"host": [
						"localhost"
					],
					"port": "7101",
					"path": [
						"api",
						"products"
					]
				}
			},
			"response": []
		},
		{
			"name": "Create Products",
			"request": {
				"method": "POST",
				"header": [],
				"body": {
					"mode": "raw",
					"raw": "\r\n{\r\n    \r\n    \"Name\": \"The Alchemist\",\r\n    \"Price\": 30.01\r\n}\r\n\r\n\r\n\r\n",
					"options": {
						"raw": {
							"language": "json"
						}
					}
				},
				"url": {
					"raw": "https://localhost:7101/api/products",
					"protocol": "https",
					"host": [
						"localhost"
					],
					"port": "7101",
					"path": [
						"api",
						"products"
					]
				}
			},
			"response": []
		},
		{
			"name": "Update Products",
			"request": {
				"method": "PUT",
				"header": [],
				"body": {
					"mode": "raw",
					"raw": "{\r\n    \"Name\": \"Gone with the Wind\",\r\n    \"Price\": 19.11\r\n}",
					"options": {
						"raw": {
							"language": "json"
						}
					}
				},
				"url": {
					"raw": "https://localhost:7101/api/products/1",
					"protocol": "https",
					"host": [
						"localhost"
					],
					"port": "7101",
					"path": [
						"api",
						"products",
						"1"
					]
				}
			},
			"response": []
		},
		{
			"name": "Delete Products",
			"request": {
				"method": "DELETE",
				"header": [],
				"body": {
					"mode": "raw",
					"raw": "{\r\n    \"Name\": \"Gone with the Wind\",\r\n    \"Price\": 19.11\r\n}",
					"options": {
						"raw": {
							"language": "json"
						}
					}
				},
				"url": {
					"raw": "https://localhost:7101/api/products/1",
					"protocol": "https",
					"host": [
						"localhost"
					],
					"port": "7101",
					"path": [
						"api",
						"products",
						"1"
					]
				}
			},
			"response": []
		}
	]
}